[{"request":{"url":"https://rapidpass-api.azurewebsites.net/api/v1/batch/access-passes?lastSyncOn=0&pageNumber=0&pageSize=10","payload":null,"headers":{}},"response":{"status":200,"body":{"meta":{"pageNumber":0,"pageSize":10,"totalPages":4,"totalRows":38},"csv":"\"APORTYPE\",\"CONTROLCODE\",\"IDENTIFIERNUMBER\",\"IDTYPE\",\"ISSUEDON\",\"PASSTYPE\",\"STATUS\",\"VALIDFROM\",\"VALIDUNTIL\"\n\"GR\",\"1P0PAADK\",\"BPC 179\",\"PersonalID\",\"1585894092\",\"INDIVIDUAL\",\"APPROVED\",\"1585898891\",\"1586707199\"\n\"PH\",\"0TFQ3BSX\",\"NAF 117\",\"PersonalID\",\"1585894096\",\"INDIVIDUAL\",\"APPROVED\",\"1585898995\",\"1586707199\"\n\"SS\",\"000000H7\",\"RYB 198\",\"PersonalID\",\"1585894107\",\"INDIVIDUAL\",\"APPROVED\",\"1585899071\",\"1586707199\"\n\"DC\",\"000000WX\",\"QPM 931\",\"PersonalID\",\"1585894137\",\"INDIVIDUAL\",\"APPROVED\",\"1585899114\",\"1586707199\"\n\"LW\",\"000000H7\",\"VAY 433\",\"PersonalID\",\"1585894193\",\"INDIVIDUAL\",\"APPROVED\",\"1585899213\",\"1586707199\"\n\"ME\",\"0RMNH83D\",\"NUD 688\",\"PersonalID\",\"1585894145\",\"INDIVIDUAL\",\"APPROVED\",\"1585899234\",\"1586707199\"\n\"DO\",\"1JA25XK6\",\" MYKL-AUTO-725\",\"PRC\",\"1585896040\",\"INDIVIDUAL\",\"APPROVED\",\"1585896042\",\"1586707199\"\n\"ER\",\"1075RXT1\",\" MYKL-AUTO-726\",\"POS\",\"1585896049\",\"INDIVIDUAL\",\"APPROVED\",\"1585896050\",\"1586707199\"\n\"FC\",\"000000EW\",\" MYKL-AUTO-727\",\"PHC\",\"1585896055\",\"INDIVIDUAL\",\"APPROVED\",\"1585896056\",\"1586707199\"\n\"FS\",\"0000007E\",\" MYKL-AUTO-728\",\"PGB\",\"1585896057\",\"INDIVIDUAL\",\"APPROVED\",\"1585896058\",\"1586707199\"\n"},"headers":{"content-type":["application/json"],"set-cookie":["TiPMix=73.4530400361181; path=/; HttpOnly; Domain=rapidpass-api.azurewebsites.net; Max-Age=3600","x-ms-routing-name=self; path=/; HttpOnly; Domain=rapidpass-api.azurewebsites.net; Max-Age=3600"],"date":["Sat, 04 Apr 2020 04:43:00 GMT"],"transfer-encoding":["chunked"],"vary":["Access-Control-Request-Headers"]}},"createdAt":"2020-04-04 12:43:00.607117"}]